<svg width="23" height="24" viewBox="0 0 23 24" fill="none" xmlns="http://www.w3.org/2000/svg">
<path fill-rule="evenodd" clip-rule="evenodd" d="M0 22.6788C0 22.2252 0.367763 21.8574 0.821421 21.8574H18.8927C19.3463 21.8574 19.7141 22.2252 19.7141 22.6788C19.7141 23.1325 19.3463 23.5003 18.8927 23.5003H0.821421C0.367763 23.5003 0 23.1325 0 22.6788Z" fill="#22006B"/>
<path fill-rule="evenodd" clip-rule="evenodd" d="M18.2076 2.41665C17.981 2.4963 17.9178 2.69206 17.7284 2.89581C17.539 3.09956 7.23941 13.2182 7.23941 13.2182L6.62324 16.745L10.1432 16.1231L20.9786 5.28771C21.1325 5.13368 21.2191 4.92474 21.2191 4.70697C21.2191 4.4892 21.1326 4.28034 20.9787 4.12631M18.2076 2.41665C18.3841 2.35459 18.5115 2.35102 18.6867 2.41665C18.826 2.46882 18.9921 2.64443 18.9921 2.64443L20.9787 4.12631M16.9127 1.2215C17.3749 0.759525 18.0015 0.5 18.655 0.5C19.3084 0.5 19.9351 0.759525 20.3972 1.2215L22.1403 2.96465C22.6023 3.42676 22.8619 4.05353 22.8619 4.70697C22.8619 5.3604 22.6024 5.98708 22.1404 6.4492L11.1218 17.4678C11.0027 17.587 10.8498 17.6666 10.6839 17.6959L5.75535 18.5666C5.49162 18.6132 5.22172 18.5283 5.03217 18.3391C4.84261 18.1499 4.75719 17.8802 4.80328 17.6163L5.66578 12.6796C5.69486 12.5131 5.7746 12.3596 5.89411 12.2401L16.9127 1.2215Z" fill="#22006B"/>
</svg>
