<svg width="48" height="48" viewBox="0 0 48 48" fill="none" xmlns="http://www.w3.org/2000/svg">
<circle r="24" transform="matrix(-1 0 0 1 24 24)" fill="black" fill-opacity="0.4"/>
<path d="M20 15L30 25L20 35" stroke="white" stroke-width="5" stroke-linecap="round"/>
</svg>
