<svg width="107" height="100" viewBox="0 0 107 100" fill="none" xmlns="http://www.w3.org/2000/svg">
<g clip-path="url(#clip0_1044_4459)">
<path d="M103.778 54.1337C102.892 53.5221 101.872 53.1339 100.804 53.0023C99.7358 52.8707 98.6518 52.9997 97.6444 53.3781L79.8667 60.0003V56.667C79.8667 54.0148 78.8132 51.4713 76.9378 49.5959C75.0624 47.7206 72.5188 46.667 69.8667 46.667H9.86667C7.23768 46.702 4.7283 47.7711 2.88167 49.6427C1.03505 51.5142 -0.000233679 54.0378 3.95635e-08 56.667V90.0003C3.95635e-08 92.6525 1.05351 95.196 2.92887 97.0714C4.80424 98.9467 7.34783 100 10 100H70C72.6522 100 75.1958 98.9467 77.0711 97.0714C78.9465 95.196 80 92.6525 80 90.0003V89.6003L97.7778 96.2226C98.5264 96.5231 99.3266 96.6741 100.133 96.667C101.487 96.6708 102.808 96.2512 103.911 95.467C104.776 94.8448 105.479 94.0229 105.959 93.0712C106.438 92.1195 106.681 91.066 106.667 90.0003V59.6003C106.666 58.5229 106.403 57.4618 105.899 56.5091C105.396 55.5565 104.668 54.7411 103.778 54.1337V54.1337ZM73.3333 90.0003C73.3218 90.8808 72.9669 91.722 72.3443 92.3446C71.7216 92.9673 70.8805 93.3221 70 93.3337H10C9.11952 93.3221 8.27835 92.9673 7.65571 92.3446C7.03306 91.722 6.67818 90.8808 6.66667 90.0003V56.667C6.67818 55.7865 7.03306 54.9453 7.65571 54.3227C8.27835 53.7001 9.11952 53.3452 10 53.3337H70C70.8805 53.3452 71.7216 53.7001 72.3443 54.3227C72.9669 54.9453 73.3218 55.7865 73.3333 56.667V90.0003ZM100 90.0003L80 82.4892V67.1114L100 59.6003V90.0003Z" fill="url(#paint0_linear_1044_4459)"/>
<path d="M56.6667 60H20.0001C19.116 60 18.2682 60.3512 17.643 60.9763C17.0179 61.6014 16.6667 62.4493 16.6667 63.3333C16.6667 64.2174 17.0179 65.0652 17.643 65.6903C18.2682 66.3155 19.116 66.6667 20.0001 66.6667H56.6667C57.5508 66.6667 58.3987 66.3155 59.0238 65.6903C59.6489 65.0652 60.0001 64.2174 60.0001 63.3333C60.0001 62.4493 59.6489 61.6014 59.0238 60.9763C58.3987 60.3512 57.5508 60 56.6667 60V60Z" fill="url(#paint1_linear_1044_4459)"/>
<path d="M20 40C23.9556 40 27.8224 38.827 31.1114 36.6294C34.4004 34.4318 36.9639 31.3082 38.4776 27.6537C39.9914 23.9992 40.3875 19.9778 39.6157 16.0982C38.844 12.2186 36.9392 8.65491 34.1421 5.85786C31.3451 3.06081 27.7814 1.156 23.9018 0.384298C20.0222 -0.387406 16.0008 0.00868135 12.3463 1.52243C8.6918 3.03619 5.56826 5.59961 3.37063 8.8886C1.173 12.1776 0 16.0444 0 20C0.0117403 25.3007 2.12258 30.381 5.87077 34.1292C9.61895 37.8774 14.6993 39.9883 20 40V40ZM20 6.66668C22.6371 6.66668 25.215 7.44867 27.4076 8.91376C29.6003 10.3788 31.3092 12.4612 32.3184 14.8976C33.3276 17.3339 33.5916 20.0148 33.0771 22.6012C32.5626 25.1876 31.2927 27.5634 29.428 29.4281C27.5633 31.2928 25.1876 32.5627 22.6012 33.0771C20.0148 33.5916 17.3339 33.3276 14.8976 32.3184C12.4612 31.3092 10.3788 29.6003 8.91371 27.4076C7.44862 25.215 6.66667 22.6371 6.66667 20C6.66667 16.4638 8.07148 13.0724 10.572 10.5719C13.0725 8.07143 16.4638 6.66668 20 6.66668V6.66668Z" fill="url(#paint2_linear_1044_4459)"/>
<path d="M63.3334 40.0003C66.6298 40.0003 69.852 39.0229 72.5929 37.1915C75.3337 35.3601 77.4699 32.7572 78.7314 29.7117C79.9928 26.6663 80.3229 23.3152 79.6799 20.0822C79.0368 16.8491 77.4494 13.8794 75.1185 11.5486C72.7876 9.21769 69.818 7.63033 66.585 6.98724C63.3519 6.34415 60.0008 6.67423 56.9554 7.93569C53.9099 9.19715 51.3069 11.3333 49.4756 14.0742C47.6442 16.815 46.6667 20.0373 46.6667 23.3337C46.6667 27.7539 48.4227 31.9932 51.5483 35.1188C54.6739 38.2444 58.9131 40.0003 63.3334 40.0003ZM63.3334 13.3337C65.3112 13.3337 67.2446 13.9202 68.8891 15.019C70.5336 16.1178 71.8154 17.6796 72.5722 19.5068C73.3291 21.3341 73.5271 23.3447 73.1412 25.2846C72.7554 27.2244 71.8031 29.0062 70.4045 30.4047C69.006 31.8033 67.2242 32.7557 65.2844 33.1415C63.3446 33.5274 61.3339 33.3293 59.5066 32.5725C57.6794 31.8156 56.1175 30.5339 55.0187 28.8894C53.9199 27.2449 53.3334 25.3115 53.3334 23.3337C53.3334 20.6815 54.3869 18.138 56.2623 16.2626C58.1377 14.3873 60.6813 13.3337 63.3334 13.3337V13.3337Z" fill="url(#paint3_linear_1044_4459)"/>
</g>
<defs>
<linearGradient id="paint0_linear_1044_4459" x1="-3.2" y1="11.2003" x2="6.0744" y2="103.481" gradientUnits="userSpaceOnUse">
<stop stop-color="#0464FE"/>
<stop offset="1" stop-color="#8A83F9"/>
</linearGradient>
<linearGradient id="paint1_linear_1044_4459" x1="1.60008" y1="47.4667" x2="-3.48773" y2="70.2746" gradientUnits="userSpaceOnUse">
<stop stop-color="#0464FE"/>
<stop offset="1" stop-color="#8A83F9"/>
</linearGradient>
<linearGradient id="paint2_linear_1044_4459" x1="3.60656" y1="7.21312" x2="75.7436" y2="86.3907" gradientUnits="userSpaceOnUse">
<stop stop-color="#0464FE"/>
<stop offset="1" stop-color="#8A83F9"/>
</linearGradient>
<linearGradient id="paint3_linear_1044_4459" x1="49.6722" y1="12.6779" x2="98.6741" y2="68.7939" gradientUnits="userSpaceOnUse">
<stop stop-color="#0464FE"/>
<stop offset="1" stop-color="#8A83F9"/>
</linearGradient>
<clipPath id="clip0_1044_4459">
<rect width="106.667" height="100" fill="white"/>
</clipPath>
</defs>
</svg>
